…
    ## `summarise()` has grouped output by 'state'. You can override using the
    ## `.groups` argument.

``` r
state_med
```

    ## # A tibble: 48 × 4
    ## # Groups:   state [48]
    ##    state state_temp state_wind.sp state_atm.press
    ##    <chr>      <dbl>         <dbl>           <dbl>
    ##  1 AL          26.3          1.66           1015.
    ##  2 AR          26.2          1.94           1015.
    ##  3 AZ          30.3          3.07           1010.
    ##  4 CA          22.7          2.57           1013.
    ##  5 CO          21.5          3.10           1013.
    ##  6 CT          22.4          2.10           1015.
    ##  7 DE          24.6          2.75           1015.
    ##  8 FL          27.6          2.71           1015.
    ##  9 GA          26.7          1.50           1015.
    ## 10 IA          21.3          2.68           1015.
    ## # … with 38 more rows
…
